…
``` r
order = otu_sum %>% select("site") %>% unique() %>% tibble::rowid_to_column("order") %>% as_tibble()

ots_order = left_join(order, otu_sum, by = "site")
```

``` r
otu_sum %>% 
  filter(site == "tara_004_srf_0_22_1_6") %>% 
  mutate(
    pct = round(sum / sum(sum), 5)
  )
```

    ## # A tibble: 56 x 4
    ## # Groups:   site [1]
    ##    site                  phylum                    sum     pct
    ##    <chr>                 <chr>                   <dbl>   <dbl>
    ##  1 tara_004_srf_0_22_1_6 Acidobacteria               3 0.00003
    ##  2 tara_004_srf_0_22_1_6 Actinobacteria           2104 0.0231 
    ##  3 tara_004_srf_0_22_1_6 aquifer1                    0 0      
    ##  4 tara_004_srf_0_22_1_6 Aquificae                   0 0      
    ##  5 tara_004_srf_0_22_1_6 Armatimonadetes             1 0.00001
    ##  6 tara_004_srf_0_22_1_6 Bacteroidetes            5846 0.0642 
    ##  7 tara_004_srf_0_22_1_6 BD1-5                       0 0      
    ##  8 tara_004_srf_0_22_1_6 BHI80-139                   0 0      
    ##  9 tara_004_srf_0_22_1_6 Caldiserica                 0 0      
    ## 10 tara_004_srf_0_22_1_6 Candidate division BRC1     0 0      
    ## # … with 46 more rows
…
